{"msg":"成功","code":2000,"data":{"pageNo":14,"pageSize":4,"totalCount":56,"totalPage":14,"data":[{"peopleNum":141,"id":99,"peopleCode":"99","peopleName":"唐青","peoplePhone":"15986391521","peopleArea":1,"peopleType":2,"peopleSpecial":"唱歌","peopleImage":"http://hachistatic-oss.hachi-tech.com/seedland-hachi/images/nvshenjie/99.jpeg","createTime":"2019-03-22 17:38:53","isDelete":0},{"peopleNum":25,"id":84,"peopleCode":"84","peopleName":"吴琪","peoplePhone":"18902305277","peopleArea":1,"peopleType":1,"peopleSpecial":"舞蹈","peopleImage":"http://hachistatic-oss.hachi-tech.com/seedland-hachi/images/nvshenjie/84.jpeg","createTime":"2019-03-22 17:38:53","isDelete":0},{"peopleNum":18,"id":52,"peopleCode":"52","peopleName":"张智茵","peoplePhone":"18620991542","peopleArea":1,"peopleType":2,"peopleSpecial":"唱歌","peopleImage":"http://hachistatic-oss.hachi-tech.com/seedland-hachi/images/nvshenjie/52.jpeg","createTime":"2019-03-22 17:38:53","isDelete":0},{"peopleNum":25,"id":64,"peopleCode":"64","peopleName":"丫丫","peoplePhone":"18922374248","peopleArea":1,"peopleType":1,"peopleImage":"http://hachistatic-oss.hachi-tech.com/seedland-hachi/images/nvshenjie/64.jpeg","createTime":"2019-03-22 17:38:53","isDelete":0}],"offset":52},"isSuccess":true}