{"msg":"成功","code":2000,"data":{"pageNo":13,"pageSize":4,"totalCount":56,"totalPage":14,"data":[{"peopleNum":6,"id":97,"peopleCode":"97","peopleName":"汪建涛","peoplePhone":"15085558370","peopleArea":2,"peopleType":2,"peopleImage":"http://hachistatic-oss.hachi-tech.com/seedland-hachi/images/nvshenjie/97.jpeg","createTime":"2019-03-22 17:38:53","isDelete":0},{"peopleNum":20,"id":80,"peopleCode":"80","peopleName":"米亚","peoplePhone":"15018473086","peopleArea":1,"peopleType":2,"peopleImage":"http://hachistatic-oss.hachi-tech.com/seedland-hachi/images/nvshenjie/80.jpeg","createTime":"2019-03-22 17:38:53","isDelete":0},{"peopleNum":25,"id":43,"peopleCode":"43","peopleName":"朱可宁","peoplePhone":"13424567803","peopleArea":3,"peopleType":2,"peopleImage":"http://hachistatic-oss.hachi-tech.com/seedland-hachi/images/nvshenjie/43.jpeg","createTime":"2019-03-22 17:38:53","isDelete":0},{"peopleNum":5,"id":98,"peopleCode":"98","peopleName":"芭比安琪儿","peoplePhone":"13746782244","peopleArea":1,"peopleType":2,"peopleImage":"http://hachistatic-oss.hachi-tech.com/seedland-hachi/images/nvshenjie/98.jpg","createTime":"2019-03-22 17:38:53","isDelete":0}],"offset":48},"isSuccess":true}