{"msg":"成功","code":2000,"data":{"pageNo":5,"pageSize":4,"totalCount":56,"totalPage":14,"data":[{"peopleNum":7,"id":87,"peopleCode":"87","peopleName":"王若熙","peoplePhone":"13929507847","peopleArea":1,"peopleType":1,"peopleSpecial":"唱歌跳舞画画","peopleImage":"http://hachistatic-oss.hachi-tech.com/seedland-hachi/images/nvshenjie/87.jpeg","createTime":"2019-03-22 17:38:53","isDelete":0},{"peopleNum":126,"id":103,"peopleCode":"103","peopleName":"小慧","peoplePhone":"15989096814","peopleArea":1,"peopleType":2,"peopleSpecial":"运动","peopleImage":"http://hachistatic-oss.hachi-tech.com/seedland-hachi/images/nvshenjie/103.jpeg","createTime":"2019-03-22 17:38:53","isDelete":0},{"peopleNum":11,"id":69,"peopleCode":"69","peopleName":"毛钦丽","peoplePhone":"15085524167","peopleArea":2,"peopleType":1,"peopleImage":"http://hachistatic-oss.hachi-tech.com/seedland-hachi/images/nvshenjie/69.jpg","createTime":"2019-03-22 17:38:53","isDelete":0},{"peopleNum":12,"id":106,"peopleCode":"106","peopleName":"赵钟灵","peoplePhone":"18300932040","peopleArea":1,"peopleType":1,"peopleSpecial":"画画","peopleImage":"http://hachistatic-oss.hachi-tech.com/seedland-hachi/images/nvshenjie/106.jpeg","createTime":"2019-03-22 17:38:53","isDelete":0}],"offset":16},"isSuccess":true}