{"msg":"成功","code":2000,"data":{"pageNo":8,"pageSize":4,"totalCount":56,"totalPage":14,"data":[{"peopleNum":30,"id":92,"peopleCode":"92","peopleName":"陈君霞","peoplePhone":"15120251166","peopleArea":2,"peopleType":2,"peopleSpecial":"唱歌","peopleImage":"http://hachistatic-oss.hachi-tech.com/seedland-hachi/images/nvshenjie/92.jpeg","createTime":"2019-03-22 17:38:53","isDelete":0},{"peopleNum":0,"id":109,"peopleCode":"109","peopleName":"zaya","peoplePhone":"13129308515","peopleArea":1,"peopleType":2,"peopleSpecial":"唱歌","peopleImage":"http://hachistatic-oss.hachi-tech.com/seedland-hachi/images/nvshenjie/109.jpeg","createTime":"2019-03-22 17:38:53","isDelete":0},{"peopleNum":2,"id":110,"peopleCode":"110","peopleName":"小美女","peoplePhone":"13129308515","peopleArea":1,"peopleType":1,"peopleSpecial":"跳舞","peopleImage":"http://hachistatic-oss.hachi-tech.com/seedland-hachi/images/nvshenjie/110.jpeg","createTime":"2019-03-22 17:38:53","isDelete":0},{"peopleNum":6,"id":93,"peopleCode":"93","peopleName":"蔡家媛","peoplePhone":"13533100682","peopleArea":1,"peopleType":2,"peopleSpecial":"唱歌","peopleImage":"http://hachistatic-oss.hachi-tech.com/seedland-hachi/images/nvshenjie/93.jpeg","createTime":"2019-03-22 17:38:53","isDelete":0}],"offset":28},"isSuccess":true}