{"msg":"成功","code":2000,"data":{"pageNo":7,"pageSize":4,"totalCount":56,"totalPage":14,"data":[{"peopleNum":4,"id":90,"peopleCode":"90","peopleName":"朱玥盈","peoplePhone":"13512788042","peopleArea":1,"peopleType":1,"peopleSpecial":"画画","peopleImage":"http://hachistatic-oss.hachi-tech.com/seedland-hachi/images/nvshenjie/90.png","createTime":"2019-03-22 17:38:53","isDelete":0},{"peopleNum":207,"id":91,"peopleCode":"91","peopleName":"可儿","peoplePhone":"15622289116","peopleArea":1,"peopleType":2,"peopleImage":"http://hachistatic-oss.hachi-tech.com/seedland-hachi/images/nvshenjie/91.jpeg","createTime":"2019-03-22 17:38:53","isDelete":0},{"peopleNum":0,"id":108,"peopleCode":"108","peopleName":"邝洣莎","peoplePhone":"18665095160","peopleArea":1,"peopleType":1,"peopleSpecial":"模特 舞蹈","peopleImage":"http://hachistatic-oss.hachi-tech.com/seedland-hachi/images/nvshenjie/108.jpeg","createTime":"2019-03-22 17:38:53","isDelete":0},{"peopleNum":233,"id":73,"peopleCode":"73","peopleName":"玥玥","peoplePhone":"18665688708","peopleArea":1,"peopleType":1,"peopleImage":"http://hachistatic-oss.hachi-tech.com/seedland-hachi/images/nvshenjie/73.jpeg","createTime":"2019-03-22 17:38:53","isDelete":0}],"offset":24},"isSuccess":true}