{"msg":"成功","code":2000,"data":{"pageNo":3,"pageSize":4,"totalCount":56,"totalPage":14,"data":[{"peopleNum":33,"id":63,"peopleCode":"63","peopleName":"贾馨洋","peoplePhone":"13925021960","peopleArea":1,"peopleType":1,"peopleSpecial":"钢琴、舞蹈","peopleImage":"http://hachistatic-oss.hachi-tech.com/seedland-hachi/images/nvshenjie/63.jpeg","createTime":"2019-03-22 17:38:53","isDelete":0},{"peopleNum":11,"id":65,"peopleCode":"65","peopleName":"子涵","peoplePhone":"13922184155","peopleArea":1,"peopleType":1,"peopleImage":"http://hachistatic-oss.hachi-tech.com/seedland-hachi/images/nvshenjie/65.jpeg","createTime":"2019-03-22 17:38:53","isDelete":0},{"peopleNum":7,"id":101,"peopleCode":"101","peopleName":"小伊伊","peoplePhone":"13543556676","peopleArea":3,"peopleType":1,"peopleImage":"http://hachistatic-oss.hachi-tech.com/seedland-hachi/images/nvshenjie/101.jpeg","createTime":"2019-03-22 17:38:53","isDelete":0},{"peopleNum":38,"id":66,"peopleCode":"66","peopleName":"Sarah","peoplePhone":"15627865911","peopleArea":1,"peopleType":2,"peopleImage":"http://hachistatic-oss.hachi-tech.com/seedland-hachi/images/nvshenjie/66.jpeg","createTime":"2019-03-22 17:38:53","isDelete":0}],"offset":8},"isSuccess":true}