{"msg":"成功","code":2000,"data":{"pageNo":9,"pageSize":4,"totalCount":56,"totalPage":14,"data":[{"peopleNum":6,"id":74,"peopleCode":"74","peopleName":"唐思语","peoplePhone":"13096750266","peopleArea":2,"peopleType":1,"peopleSpecial":"古筝","peopleImage":"http://hachistatic-oss.hachi-tech.com/seedland-hachi/images/nvshenjie/74.jpeg","createTime":"2019-03-22 17:38:53","isDelete":0},{"peopleNum":1,"id":75,"peopleCode":"75","peopleName":"全予靖","peoplePhone":"13923312420","peopleArea":3,"peopleType":1,"peopleSpecial":"跳舞，钢琴","peopleImage":"http://hachistatic-oss.hachi-tech.com/seedland-hachi/images/nvshenjie/75.jpeg","createTime":"2019-03-22 17:38:53","isDelete":0},{"peopleNum":0,"id":111,"peopleCode":"111","peopleName":"徐娅","peoplePhone":"17585129099","peopleArea":2,"peopleType":2,"peopleImage":"http://hachistatic-oss.hachi-tech.com/seedland-hachi/images/nvshenjie/111.png","createTime":"2019-03-22 17:38:53","isDelete":0},{"peopleNum":42,"id":25,"peopleCode":"25","peopleName":"陈茵","peoplePhone":"13437823026","peopleArea":1,"peopleType":2,"peopleImage":"http://hachistatic-oss.hachi-tech.com/seedland-hachi/images/nvshenjie/25.jpg","createTime":"2019-03-22 17:38:53","isDelete":0}],"offset":32},"isSuccess":true}