{"msg":"成功","code":2000,"data":{"pageNo":11,"pageSize":4,"totalCount":56,"totalPage":14,"data":[{"peopleNum":17,"id":95,"peopleCode":"95","peopleName":"杨雨欣","peoplePhone":"18212156430","peopleType":1,"peopleImage":"http://hachistatic-oss.hachi-tech.com/seedland-hachi/images/nvshenjie/95.jpeg","createTime":"2019-03-22 17:38:53","isDelete":0},{"peopleNum":217,"id":77,"peopleCode":"77","peopleName":"曹建湘","peoplePhone":"13826279682","peopleArea":2,"peopleType":1,"peopleSpecial":"运动","peopleImage":"http://hachistatic-oss.hachi-tech.com/seedland-hachi/images/nvshenjie/77.jpeg","createTime":"2019-03-22 17:38:53","isDelete":0},{"peopleNum":253,"id":31,"peopleCode":"31","peopleName":"赖丽芳","peoplePhone":"13129308518","peopleArea":1,"peopleType":2,"peopleImage":"http://hachistatic-oss.hachi-tech.com/seedland-hachi/images/nvshenjie/31.jpeg","createTime":"2019-03-22 17:38:53","isDelete":0},{"peopleNum":203,"id":33,"peopleCode":"33","peopleName":"吴瑕","peoplePhone":"13640291883","peopleArea":1,"peopleType":2,"peopleImage":"http://hachistatic-oss.hachi-tech.com/seedland-hachi/images/nvshenjie/33.jpeg","createTime":"2019-03-22 17:38:53","isDelete":0}],"offset":40},"isSuccess":true}