{"msg":"成功","code":2000,"data":{"pageNo":1,"pageSize":4,"totalCount":56,"totalPage":14,"data":[{"peopleNum":6,"id":154,"peopleCode":"0154","peopleName":"陈斌","mid":"35bb835a24516ac8","peoplePhone":"17608214661","peopleArea":1,"peopleType":2,"peopleImage":"http://hachistatic-oss-dev.hachi-tech.com/http://hachifile-oss-dev.hachi-tech.com/images/20190322184942099","createTime":"2019-03-22 18:50:00","isDelete":0},{"peopleNum":1,"id":153,"peopleCode":"0153","peopleName":"艾普","mid":"35bb835a24516ac8","peoplePhone":"17600214661","peopleArea":1,"peopleType":1,"peopleImage":"http://hachistatic-oss-dev.hachi-tech.com/http://hachifile-oss-dev.hachi-tech.com/images/20190322184832435","createTime":"2019-03-22 18:48:59","isDelete":0},{"peopleNum":1,"id":152,"peopleCode":"0152","peopleName":"叫姐姐","mid":"35bb835a24516ac8","peoplePhone":"13112345678","peopleArea":1,"peopleType":1,"peopleImage":"http://hachistatic-oss-dev.hachi-tech.com/http://hachifile-oss-dev.hachi-tech.com/images/20190322183751412","createTime":"2019-03-22 18:38:06","isDelete":0},{"peopleNum":1,"id":151,"peopleCode":"0151","peopleName":"全新","mid":"BA4A2789-F98C-4625-948A-F9740C431960","peoplePhone":"18218261425","peopleArea":1,"peopleType":2,"peopleImage":"http://hachistatic-oss-dev.hachi-tech.com/http://hachifile-oss-dev.hachi-tech.com/images/20190322182816198","createTime":"2019-03-22 18:28:18","isDelete":0}],"offset":0},"isSuccess":true}