{"msg":"成功","code":2000,"data":{"pageNo":10,"pageSize":4,"totalCount":56,"totalPage":14,"data":[{"peopleNum":20,"id":76,"peopleCode":"76","peopleName":"凡凡","peoplePhone":"13560312820","peopleArea":1,"peopleType":2,"peopleSpecial":"跳舞，钢琴","peopleImage":"http://hachistatic-oss.hachi-tech.com/seedland-hachi/images/nvshenjie/76.jpeg","createTime":"2019-03-22 17:38:53","isDelete":0},{"peopleNum":0,"id":112,"peopleCode":"112","peopleName":"唐思语","peoplePhone":"13096750266","peopleArea":2,"peopleType":1,"peopleSpecial":"古筝","peopleImage":"http://hachistatic-oss.hachi-tech.com/seedland-hachi/images/nvshenjie/112.jpeg","createTime":"2019-03-22 17:38:53","isDelete":0},{"peopleNum":106,"id":27,"peopleCode":"27","peopleName":"陈蕾","peoplePhone":"15986756715","peopleArea":1,"peopleType":2,"peopleImage":"http://hachistatic-oss.hachi-tech.com/seedland-hachi/images/nvshenjie/27.jpeg","createTime":"2019-03-22 17:38:53","isDelete":0},{"peopleNum":29,"id":94,"peopleCode":"94","peopleName":"卢会语","peoplePhone":"15120251166","peopleArea":2,"peopleType":1,"peopleSpecial":"跳舞、钢琴","peopleImage":"http://hachistatic-oss.hachi-tech.com/seedland-hachi/images/nvshenjie/94.jpeg","createTime":"2019-03-22 17:38:53","isDelete":0}],"offset":36},"isSuccess":true}