{"msg":"成功","code":2000,"data":{"pageNo":4,"pageSize":4,"totalCount":56,"totalPage":14,"data":[{"peopleNum":106,"id":102,"peopleCode":"102","peopleName":"妍宝","peoplePhone":"13533121920","peopleArea":1,"peopleType":1,"peopleSpecial":"舞蹈","peopleImage":"http://hachistatic-oss.hachi-tech.com/seedland-hachi/images/nvshenjie/102.jpeg","createTime":"2019-03-22 17:38:53","isDelete":0},{"peopleNum":5,"id":85,"peopleCode":"85","peopleName":"贝壳","peoplePhone":"13392879997","peopleArea":1,"peopleType":1,"peopleImage":"http://hachistatic-oss.hachi-tech.com/seedland-hachi/images/nvshenjie/85.jpg","createTime":"2019-03-22 17:38:53","isDelete":0},{"peopleNum":7,"id":86,"peopleCode":"86","peopleName":"陈沐妍","peoplePhone":"13535328745","peopleArea":1,"peopleType":1,"peopleImage":"http://hachistatic-oss.hachi-tech.com/seedland-hachi/images/nvshenjie/86.jpg","createTime":"2019-03-22 17:38:53","isDelete":0},{"peopleNum":53,"id":67,"peopleCode":"67","peopleName":"陈林燕","peoplePhone":"18565252233","peopleArea":1,"peopleType":2,"peopleImage":"http://hachistatic-oss.hachi-tech.com/seedland-hachi/images/nvshenjie/67.jpeg","createTime":"2019-03-22 17:38:53","isDelete":0}],"offset":12},"isSuccess":true}