{"msg":"成功","code":2000,"data":{"pageNo":6,"pageSize":4,"totalCount":56,"totalPage":14,"data":[{"peopleNum":5,"id":70,"peopleCode":"70","peopleName":"潘志华","peoplePhone":"18922120853","peopleArea":1,"peopleType":1,"peopleSpecial":"游泳","peopleImage":"http://hachistatic-oss.hachi-tech.com/seedland-hachi/images/nvshenjie/70.jpeg","createTime":"2019-03-22 17:38:53","isDelete":0},{"peopleNum":5,"id":89,"peopleCode":"89","peopleName":"陈蕾","peoplePhone":"15986756715","peopleArea":1,"peopleType":2,"peopleSpecial":"画画","peopleImage":"http://hachistatic-oss.hachi-tech.com/seedland-hachi/images/nvshenjie/89.jpeg","createTime":"2019-03-22 17:38:53","isDelete":0},{"peopleNum":1,"id":107,"peopleCode":"107","peopleName":"罗梓瑗","peoplePhone":"13149378885","peopleArea":1,"peopleType":1,"peopleSpecial":"钢琴","peopleImage":"http://hachistatic-oss.hachi-tech.com/seedland-hachi/images/nvshenjie/107.jpeg","createTime":"2019-03-22 17:38:53","isDelete":0},{"peopleNum":19,"id":72,"peopleCode":"72","peopleName":"梁titi","peoplePhone":"13560311925","peopleArea":1,"peopleType":2,"peopleSpecial":"跳舞","peopleImage":"http://hachistatic-oss.hachi-tech.com/seedland-hachi/images/nvshenjie/72.jpeg","createTime":"2019-03-22 17:38:53","isDelete":0}],"offset":20},"isSuccess":true}