{"msg":"成功","code":2000,"data":{"pageNo":12,"pageSize":4,"totalCount":56,"totalPage":14,"data":[{"peopleNum":5,"id":96,"peopleCode":"96","peopleName":"汪建涛","peoplePhone":"15085558370","peopleArea":2,"peopleType":2,"peopleImage":"http://hachistatic-oss.hachi-tech.com/seedland-hachi/images/nvshenjie/96.jpeg","createTime":"2019-03-22 17:38:53","isDelete":0},{"peopleNum":1,"id":78,"peopleCode":"78","peopleName":"饶童","peoplePhone":"18580883007","peopleArea":1,"peopleType":2,"peopleSpecial":"唱歌","peopleImage":"http://hachistatic-oss.hachi-tech.com/seedland-hachi/images/nvshenjie/78.jpeg","createTime":"2019-03-22 17:38:53","isDelete":0},{"peopleNum":1,"id":79,"peopleCode":"79","peopleName":"微微","peoplePhone":"15915731216","peopleArea":1,"peopleType":2,"peopleSpecial":"舞蹈","peopleImage":"http://hachistatic-oss.hachi-tech.com/seedland-hachi/images/nvshenjie/79.jpeg","createTime":"2019-03-22 17:38:53","isDelete":0},{"peopleNum":39,"id":35,"peopleCode":"35","peopleName":"赵云飞","peoplePhone":"18108527833","peopleArea":2,"peopleType":2,"peopleImage":"http://hachistatic-oss.hachi-tech.com/seedland-hachi/images/nvshenjie/35.jpg","createTime":"2019-03-22 17:38:53","isDelete":0}],"offset":44},"isSuccess":true}