{"msg":"成功","code":2000,"data":{"pageNo":13,"pageSize":4,"totalCount":56,"totalPage":14,"data":[{"peopleNum":0,"id":150,"peopleCode":"0150","peopleName":"6655","mid":"BA4A2789-F98C-4625-948A-F9740C431960","peoplePhone":"15698745632","peopleArea":1,"peopleType":1,"peopleImage":"http://hachistatic-oss-dev.hachi-tech.com/http://hachifile-oss-dev.hachi-tech.com/images/20190322182317030","createTime":"2019-03-22 18:23:39","isDelete":0},{"peopleNum":0,"id":149,"peopleCode":"0149","peopleName":"咖喱鸡了","mid":"9D33672F-B6EE-4486-B915-48B2BAFA6524","peoplePhone":"18811471555","peopleArea":1,"peopleType":1,"peopleImage":"http://hachistatic-oss-dev.hachi-tech.com/http://hachifile-oss-dev.hachi-tech.com/images/20190322182324242","createTime":"2019-03-22 18:23:38","isDelete":0},{"peopleNum":0,"id":148,"peopleCode":"0148","peopleName":"测试","mid":"9D33672F-B6EE-4486-B915-48B2BAFA6524","peoplePhone":"18811412082","peopleArea":1,"peopleType":1,"peopleImage":"http://hachistatic-oss-dev.hachi-tech.com/http://hachifile-oss-dev.hachi-tech.com/images/20190322182202432","createTime":"2019-03-22 18:22:44","isDelete":0},{"peopleNum":0,"id":112,"peopleCode":"112","peopleName":"唐思语","peoplePhone":"13096750266","peopleArea":2,"peopleType":1,"peopleSpecial":"古筝","peopleImage":"http://hachistatic-oss.hachi-tech.com/seedland-hachi/images/nvshenjie/112.jpeg","createTime":"2019-03-22 17:38:53","isDelete":0}],"offset":48},"isSuccess":true}