{"msg":"成功","code":2000,"data":{"pageNo":1,"pageSize":4,"totalCount":56,"totalPage":14,"data":[{"peopleNum":253,"id":31,"peopleCode":"31","peopleName":"赖丽芳","peoplePhone":"13129308518","peopleArea":1,"peopleType":2,"peopleImage":"http://hachistatic-oss.hachi-tech.com/seedland-hachi/images/nvshenjie/31.jpeg","createTime":"2019-03-22 17:38:53","isDelete":0},{"peopleNum":233,"id":73,"peopleCode":"73","peopleName":"玥玥","peoplePhone":"18665688708","peopleArea":1,"peopleType":1,"peopleImage":"http://hachistatic-oss.hachi-tech.com/seedland-hachi/images/nvshenjie/73.jpeg","createTime":"2019-03-22 17:38:53","isDelete":0},{"peopleNum":217,"id":77,"peopleCode":"77","peopleName":"曹建湘","peoplePhone":"13826279682","peopleArea":2,"peopleType":1,"peopleSpecial":"运动","peopleImage":"http://hachistatic-oss.hachi-tech.com/seedland-hachi/images/nvshenjie/77.jpeg","createTime":"2019-03-22 17:38:53","isDelete":0},{"peopleNum":207,"id":91,"peopleCode":"91","peopleName":"可儿","peoplePhone":"15622289116","peopleArea":1,"peopleType":2,"peopleImage":"http://hachistatic-oss.hachi-tech.com/seedland-hachi/images/nvshenjie/91.jpeg","createTime":"2019-03-22 17:38:53","isDelete":0}],"offset":0},"isSuccess":true}