{"msg":"成功","code":2000,"data":{"pageNo":8,"pageSize":4,"totalCount":56,"totalPage":14,"data":[{"peopleNum":7,"id":87,"peopleCode":"87","peopleName":"王若熙","peoplePhone":"13929507847","peopleArea":1,"peopleType":1,"peopleSpecial":"唱歌跳舞画画","peopleImage":"http://hachistatic-oss.hachi-tech.com/seedland-hachi/images/nvshenjie/87.jpeg","createTime":"2019-03-22 17:38:53","isDelete":0},{"peopleNum":7,"id":101,"peopleCode":"101","peopleName":"小伊伊","peoplePhone":"13543556676","peopleArea":3,"peopleType":1,"peopleImage":"http://hachistatic-oss.hachi-tech.com/seedland-hachi/images/nvshenjie/101.jpeg","createTime":"2019-03-22 17:38:53","isDelete":0},{"peopleNum":6,"id":93,"peopleCode":"93","peopleName":"蔡家媛","peoplePhone":"13533100682","peopleArea":1,"peopleType":2,"peopleSpecial":"唱歌","peopleImage":"http://hachistatic-oss.hachi-tech.com/seedland-hachi/images/nvshenjie/93.jpeg","createTime":"2019-03-22 17:38:53","isDelete":0},{"peopleNum":6,"id":154,"peopleCode":"0154","peopleName":"陈斌","mid":"35bb835a24516ac8","peoplePhone":"17608214661","peopleArea":1,"peopleType":2,"peopleImage":"http://hachistatic-oss-dev.hachi-tech.com/http://hachifile-oss-dev.hachi-tech.com/images/20190322184942099","createTime":"2019-03-22 18:50:00","isDelete":0}],"offset":28},"isSuccess":true}