{"msg":"成功","code":2000,"data":{"pageNo":7,"pageSize":4,"totalCount":56,"totalPage":14,"data":[{"peopleNum":12,"id":106,"peopleCode":"106","peopleName":"赵钟灵","peoplePhone":"18300932040","peopleArea":1,"peopleType":1,"peopleSpecial":"画画","peopleImage":"http://hachistatic-oss.hachi-tech.com/seedland-hachi/images/nvshenjie/106.jpeg","createTime":"2019-03-22 17:38:53","isDelete":0},{"peopleNum":11,"id":69,"peopleCode":"69","peopleName":"毛钦丽","peoplePhone":"15085524167","peopleArea":2,"peopleType":1,"peopleImage":"http://hachistatic-oss.hachi-tech.com/seedland-hachi/images/nvshenjie/69.jpg","createTime":"2019-03-22 17:38:53","isDelete":0},{"peopleNum":11,"id":65,"peopleCode":"65","peopleName":"子涵","peoplePhone":"13922184155","peopleArea":1,"peopleType":1,"peopleImage":"http://hachistatic-oss.hachi-tech.com/seedland-hachi/images/nvshenjie/65.jpeg","createTime":"2019-03-22 17:38:53","isDelete":0},{"peopleNum":7,"id":86,"peopleCode":"86","peopleName":"陈沐妍","peoplePhone":"13535328745","peopleArea":1,"peopleType":1,"peopleImage":"http://hachistatic-oss.hachi-tech.com/seedland-hachi/images/nvshenjie/86.jpg","createTime":"2019-03-22 17:38:53","isDelete":0}],"offset":24},"isSuccess":true}