{"msg":"成功","code":2000,"data":{"pageNo":2,"pageSize":4,"totalCount":56,"totalPage":14,"data":[{"peopleNum":203,"id":33,"peopleCode":"33","peopleName":"吴瑕","peoplePhone":"13640291883","peopleArea":1,"peopleType":2,"peopleImage":"http://hachistatic-oss.hachi-tech.com/seedland-hachi/images/nvshenjie/33.jpeg","createTime":"2019-03-22 17:38:53","isDelete":0},{"peopleNum":141,"id":99,"peopleCode":"99","peopleName":"唐青","peoplePhone":"15986391521","peopleArea":1,"peopleType":2,"peopleSpecial":"唱歌","peopleImage":"http://hachistatic-oss.hachi-tech.com/seedland-hachi/images/nvshenjie/99.jpeg","createTime":"2019-03-22 17:38:53","isDelete":0},{"peopleNum":126,"id":103,"peopleCode":"103","peopleName":"小慧","peoplePhone":"15989096814","peopleArea":1,"peopleType":2,"peopleSpecial":"运动","peopleImage":"http://hachistatic-oss.hachi-tech.com/seedland-hachi/images/nvshenjie/103.jpeg","createTime":"2019-03-22 17:38:53","isDelete":0},{"peopleNum":106,"id":27,"peopleCode":"27","peopleName":"陈蕾","peoplePhone":"15986756715","peopleArea":1,"peopleType":2,"peopleImage":"http://hachistatic-oss.hachi-tech.com/seedland-hachi/images/nvshenjie/27.jpeg","createTime":"2019-03-22 17:38:53","isDelete":0}],"offset":4},"isSuccess":true}