{"msg":"成功","code":2000,"data":{"pageNo":12,"pageSize":4,"totalCount":56,"totalPage":14,"data":[{"peopleNum":1,"id":107,"peopleCode":"107","peopleName":"罗梓瑗","peoplePhone":"13149378885","peopleArea":1,"peopleType":1,"peopleSpecial":"钢琴","peopleImage":"http://hachistatic-oss.hachi-tech.com/seedland-hachi/images/nvshenjie/107.jpeg","createTime":"2019-03-22 17:38:53","isDelete":0},{"peopleNum":1,"id":75,"peopleCode":"75","peopleName":"全予靖","peoplePhone":"13923312420","peopleArea":3,"peopleType":1,"peopleSpecial":"跳舞，钢琴","peopleImage":"http://hachistatic-oss.hachi-tech.com/seedland-hachi/images/nvshenjie/75.jpeg","createTime":"2019-03-22 17:38:53","isDelete":0},{"peopleNum":1,"id":78,"peopleCode":"78","peopleName":"饶童","peoplePhone":"18580883007","peopleArea":1,"peopleType":2,"peopleSpecial":"唱歌","peopleImage":"http://hachistatic-oss.hachi-tech.com/seedland-hachi/images/nvshenjie/78.jpeg","createTime":"2019-03-22 17:38:53","isDelete":0},{"peopleNum":1,"id":79,"peopleCode":"79","peopleName":"微微","peoplePhone":"15915731216","peopleArea":1,"peopleType":2,"peopleSpecial":"舞蹈","peopleImage":"http://hachistatic-oss.hachi-tech.com/seedland-hachi/images/nvshenjie/79.jpeg","createTime":"2019-03-22 17:38:53","isDelete":0}],"offset":44},"isSuccess":true}