{"msg":"成功","code":2000,"data":{"pageNo":9,"pageSize":4,"totalCount":56,"totalPage":14,"data":[{"peopleNum":6,"id":74,"peopleCode":"74","peopleName":"唐思语","peoplePhone":"13096750266","peopleArea":2,"peopleType":1,"peopleSpecial":"古筝","peopleImage":"http://hachistatic-oss.hachi-tech.com/seedland-hachi/images/nvshenjie/74.jpeg","createTime":"2019-03-22 17:38:53","isDelete":0},{"peopleNum":6,"id":97,"peopleCode":"97","peopleName":"汪建涛","peoplePhone":"15085558370","peopleArea":2,"peopleType":2,"peopleImage":"http://hachistatic-oss.hachi-tech.com/seedland-hachi/images/nvshenjie/97.jpeg","createTime":"2019-03-22 17:38:53","isDelete":0},{"peopleNum":5,"id":96,"peopleCode":"96","peopleName":"汪建涛","peoplePhone":"15085558370","peopleArea":2,"peopleType":2,"peopleImage":"http://hachistatic-oss.hachi-tech.com/seedland-hachi/images/nvshenjie/96.jpeg","createTime":"2019-03-22 17:38:53","isDelete":0},{"peopleNum":5,"id":98,"peopleCode":"98","peopleName":"芭比安琪儿","peoplePhone":"13746782244","peopleArea":1,"peopleType":2,"peopleImage":"http://hachistatic-oss.hachi-tech.com/seedland-hachi/images/nvshenjie/98.jpg","createTime":"2019-03-22 17:38:53","isDelete":0}],"offset":32},"isSuccess":true}