{"msg":"成功","code":2000,"data":{"pageNo":10,"pageSize":4,"totalCount":56,"totalPage":14,"data":[{"peopleNum":5,"id":85,"peopleCode":"85","peopleName":"贝壳","peoplePhone":"13392879997","peopleArea":1,"peopleType":1,"peopleImage":"http://hachistatic-oss.hachi-tech.com/seedland-hachi/images/nvshenjie/85.jpg","createTime":"2019-03-22 17:38:53","isDelete":0},{"peopleNum":5,"id":89,"peopleCode":"89","peopleName":"陈蕾","peoplePhone":"15986756715","peopleArea":1,"peopleType":2,"peopleSpecial":"画画","peopleImage":"http://hachistatic-oss.hachi-tech.com/seedland-hachi/images/nvshenjie/89.jpeg","createTime":"2019-03-22 17:38:53","isDelete":0},{"peopleNum":5,"id":70,"peopleCode":"70","peopleName":"潘志华","peoplePhone":"18922120853","peopleArea":1,"peopleType":1,"peopleSpecial":"游泳","peopleImage":"http://hachistatic-oss.hachi-tech.com/seedland-hachi/images/nvshenjie/70.jpeg","createTime":"2019-03-22 17:38:53","isDelete":0},{"peopleNum":4,"id":90,"peopleCode":"90","peopleName":"朱玥盈","peoplePhone":"13512788042","peopleArea":1,"peopleType":1,"peopleSpecial":"画画","peopleImage":"http://hachistatic-oss.hachi-tech.com/seedland-hachi/images/nvshenjie/90.png","createTime":"2019-03-22 17:38:53","isDelete":0}],"offset":36},"isSuccess":true}