{"msg":"成功","code":2000,"data":{"pageNo":6,"pageSize":4,"totalCount":56,"totalPage":14,"data":[{"peopleNum":20,"id":80,"peopleCode":"80","peopleName":"米亚","peoplePhone":"15018473086","peopleArea":1,"peopleType":2,"peopleImage":"http://hachistatic-oss.hachi-tech.com/seedland-hachi/images/nvshenjie/80.jpeg","createTime":"2019-03-22 17:38:53","isDelete":0},{"peopleNum":19,"id":72,"peopleCode":"72","peopleName":"梁titi","peoplePhone":"13560311925","peopleArea":1,"peopleType":2,"peopleSpecial":"跳舞","peopleImage":"http://hachistatic-oss.hachi-tech.com/seedland-hachi/images/nvshenjie/72.jpeg","createTime":"2019-03-22 17:38:53","isDelete":0},{"peopleNum":18,"id":52,"peopleCode":"52","peopleName":"张智茵","peoplePhone":"18620991542","peopleArea":1,"peopleType":2,"peopleSpecial":"唱歌","peopleImage":"http://hachistatic-oss.hachi-tech.com/seedland-hachi/images/nvshenjie/52.jpeg","createTime":"2019-03-22 17:38:53","isDelete":0},{"peopleNum":17,"id":95,"peopleCode":"95","peopleName":"杨雨欣","peoplePhone":"18212156430","peopleType":1,"peopleImage":"http://hachistatic-oss.hachi-tech.com/seedland-hachi/images/nvshenjie/95.jpeg","createTime":"2019-03-22 17:38:53","isDelete":0}],"offset":20},"isSuccess":true}