{"msg":"成功","code":2000,"data":{"pageNo":3,"pageSize":4,"totalCount":56,"totalPage":14,"data":[{"peopleNum":106,"id":102,"peopleCode":"102","peopleName":"妍宝","peoplePhone":"13533121920","peopleArea":1,"peopleType":1,"peopleSpecial":"舞蹈","peopleImage":"http://hachistatic-oss.hachi-tech.com/seedland-hachi/images/nvshenjie/102.jpeg","createTime":"2019-03-22 17:38:53","isDelete":0},{"peopleNum":53,"id":67,"peopleCode":"67","peopleName":"陈林燕","peoplePhone":"18565252233","peopleArea":1,"peopleType":2,"peopleImage":"http://hachistatic-oss.hachi-tech.com/seedland-hachi/images/nvshenjie/67.jpeg","createTime":"2019-03-22 17:38:53","isDelete":0},{"peopleNum":42,"id":25,"peopleCode":"25","peopleName":"陈茵","peoplePhone":"13437823026","peopleArea":1,"peopleType":2,"peopleImage":"http://hachistatic-oss.hachi-tech.com/seedland-hachi/images/nvshenjie/25.jpg","createTime":"2019-03-22 17:38:53","isDelete":0},{"peopleNum":39,"id":35,"peopleCode":"35","peopleName":"赵云飞","peoplePhone":"18108527833","peopleArea":2,"peopleType":2,"peopleImage":"http://hachistatic-oss.hachi-tech.com/seedland-hachi/images/nvshenjie/35.jpg","createTime":"2019-03-22 17:38:53","isDelete":0}],"offset":8},"isSuccess":true}