{"msg":"成功","code":2000,"data":{"pageNo":14,"pageSize":4,"totalCount":56,"totalPage":14,"data":[{"peopleNum":0,"id":111,"peopleCode":"111","peopleName":"徐娅","peoplePhone":"17585129099","peopleArea":2,"peopleType":2,"peopleImage":"http://hachistatic-oss.hachi-tech.com/seedland-hachi/images/nvshenjie/111.png","createTime":"2019-03-22 17:38:53","isDelete":0},{"peopleNum":0,"id":109,"peopleCode":"109","peopleName":"zaya","peoplePhone":"13129308515","peopleArea":1,"peopleType":2,"peopleSpecial":"唱歌","peopleImage":"http://hachistatic-oss.hachi-tech.com/seedland-hachi/images/nvshenjie/109.jpeg","createTime":"2019-03-22 17:38:53","isDelete":0},{"peopleNum":0,"id":108,"peopleCode":"108","peopleName":"邝洣莎","peoplePhone":"18665095160","peopleArea":1,"peopleType":1,"peopleSpecial":"模特 舞蹈","peopleImage":"http://hachistatic-oss.hachi-tech.com/seedland-hachi/images/nvshenjie/108.jpeg","createTime":"2019-03-22 17:38:53","isDelete":0},{"peopleNum":0,"id":147,"peopleCode":"0147","peopleName":"看看","mid":"BA4A2789-F98C-4625-948A-F9740C431960","peoplePhone":"15698745632","peopleArea":1,"peopleType":1,"peopleImage":"http://hachistatic-oss-dev.hachi-tech.com/http://hachifile-oss-dev.hachi-tech.com/images/20190322181454058","createTime":"2019-03-22 18:14:56","isDelete":0}],"offset":52},"isSuccess":true}