{"msg":"成功","code":2000,"data":{"pageNo":4,"pageSize":4,"totalCount":56,"totalPage":14,"data":[{"peopleNum":38,"id":66,"peopleCode":"66","peopleName":"Sarah","peoplePhone":"15627865911","peopleArea":1,"peopleType":2,"peopleImage":"http://hachistatic-oss.hachi-tech.com/seedland-hachi/images/nvshenjie/66.jpeg","createTime":"2019-03-22 17:38:53","isDelete":0},{"peopleNum":33,"id":63,"peopleCode":"63","peopleName":"贾馨洋","peoplePhone":"13925021960","peopleArea":1,"peopleType":1,"peopleSpecial":"钢琴、舞蹈","peopleImage":"http://hachistatic-oss.hachi-tech.com/seedland-hachi/images/nvshenjie/63.jpeg","createTime":"2019-03-22 17:38:53","isDelete":0},{"peopleNum":30,"id":92,"peopleCode":"92","peopleName":"陈君霞","peoplePhone":"15120251166","peopleArea":2,"peopleType":2,"peopleSpecial":"唱歌","peopleImage":"http://hachistatic-oss.hachi-tech.com/seedland-hachi/images/nvshenjie/92.jpeg","createTime":"2019-03-22 17:38:53","isDelete":0},{"peopleNum":29,"id":94,"peopleCode":"94","peopleName":"卢会语","peoplePhone":"15120251166","peopleArea":2,"peopleType":1,"peopleSpecial":"跳舞、钢琴","peopleImage":"http://hachistatic-oss.hachi-tech.com/seedland-hachi/images/nvshenjie/94.jpeg","createTime":"2019-03-22 17:38:53","isDelete":0}],"offset":12},"isSuccess":true}