{"msg":"成功","code":2000,"data":{"pageNo":5,"pageSize":4,"totalCount":56,"totalPage":14,"data":[{"peopleNum":25,"id":43,"peopleCode":"43","peopleName":"朱可宁","peoplePhone":"13424567803","peopleArea":3,"peopleType":2,"peopleImage":"http://hachistatic-oss.hachi-tech.com/seedland-hachi/images/nvshenjie/43.jpeg","createTime":"2019-03-22 17:38:53","isDelete":0},{"peopleNum":25,"id":84,"peopleCode":"84","peopleName":"吴琪","peoplePhone":"18902305277","peopleArea":1,"peopleType":1,"peopleSpecial":"舞蹈","peopleImage":"http://hachistatic-oss.hachi-tech.com/seedland-hachi/images/nvshenjie/84.jpeg","createTime":"2019-03-22 17:38:53","isDelete":0},{"peopleNum":25,"id":64,"peopleCode":"64","peopleName":"丫丫","peoplePhone":"18922374248","peopleArea":1,"peopleType":1,"peopleImage":"http://hachistatic-oss.hachi-tech.com/seedland-hachi/images/nvshenjie/64.jpeg","createTime":"2019-03-22 17:38:53","isDelete":0},{"peopleNum":20,"id":76,"peopleCode":"76","peopleName":"凡凡","peoplePhone":"13560312820","peopleArea":1,"peopleType":2,"peopleSpecial":"跳舞，钢琴","peopleImage":"http://hachistatic-oss.hachi-tech.com/seedland-hachi/images/nvshenjie/76.jpeg","createTime":"2019-03-22 17:38:53","isDelete":0}],"offset":16},"isSuccess":true}